%YAML 1.1
%TAG !u! tag:unity3d.com,2011:
--- !u!129 &1
PlayerSettings:
  m_ObjectHideFlags: 0
  serializedVersion: 2
  AndroidProfiler: 1
  defaultScreenOrientation: 4
  targetDevice: 2
  targetGlesGraphics: 1
  targetResolution: 0
  accelerometerFrequency: 60
  companyName: Anomalus Software
  productName: JetBotRun
  defaultCursor: {fileID: 0}
  cursorHotspot: {x: 0, y: 0}
  defaultScreenWidth: 1024
  defaultScreenHeight: 768
  defaultScreenWidthWeb: 1200
  defaultScreenHeightWeb: 800
  m_RenderingPath: 1
  m_MobileRenderingPath: 1
  m_ActiveColorSpace: 0
  m_MTRendering: 1
  m_MobileMTRendering: 1
  m_UseDX11: 0
  iosShowActivityIndicatorOnLoading: -1
  androidShowActivityIndicatorOnLoading: -1
  displayResolutionDialog: 1
  allowedAutorotateToPortrait: 0
  allowedAutorotateToPortraitUpsideDown: 0
  allowedAutorotateToLandscapeRight: 1
  allowedAutorotateToLandscapeLeft: 1
  useOSAutorotation: 1
  use32BitDisplayBuffer: 0
  use24BitDepthBuffer: 0
  defaultIsFullScreen: 1
  defaultIsNativeResolution: 1
  runInBackground: 0
  captureSingleScreen: 0
  Override IPod Music: 0
  Prepare IOS For Recording: 0
  enableHWStatistics: 1
  usePlayerLog: 1
  stripPhysics: 0
  forceSingleInstance: 0
  resizableWindow: 0
  useMacAppStoreValidation: 0
  gpuSkinning: 1
  xboxPIXTextureCapture: 0
  xboxEnableAvatar: 0
  xboxEnableKinect: 0
  xboxEnableKinectAutoTracking: 0
  xboxEnableFitness: 0
  macFullscreenMode: 2
  xboxSpeechDB: 0
  xboxEnableHeadOrientation: 0
  xboxEnableGuest: 0
  wiiHio2Usage: -1
  wiiLoadingScreenRectPlacement: 0
  wiiLoadingScreenBackground: {r: 1, g: 1, b: 1, a: 1}
  wiiLoadingScreenPeriod: 1000
  wiiLoadingScreenFileName: 
  wiiLoadingScreenRect:
    serializedVersion: 2
    x: 0
    y: 0
    width: 0
    height: 0
  m_SupportedAspectRatios:
    4:3: 1
    5:4: 1
    16:10: 1
    16:9: 1
    Others: 1
  iPhoneBundleIdentifier: com.Anomaly_Software.EndlessRunnerA
  productGUID: 3a8984573b6d44decadf1ac29eacc6ec
  iPhoneBundleVersion: .201
  AndroidBundleVersionCode: 11
  AndroidMinSdkVersion: 9
  AndroidPreferredInstallLocation: 0
  aotOptions: 
  apiCompatibilityLevel: 2
  iPhoneStrippingLevel: 0
  iPhoneScriptCallOptimization: 0
  ForceInternetPermission: 0
  ForceSDCardPermission: 0
  CreateWallpaper: 0
  APKExpansionFiles: 0
  StripUnusedMeshComponents: 0
  iPhoneSdkVersion: 988
  iPhoneTargetOSVersion: 10
  uIPrerenderedIcon: 0
  uIRequiresPersistentWiFi: 0
  uIStatusBarHidden: 1
  uIExitOnSuspend: 0
  uIStatusBarStyle: 0
  iPhoneSplashScreen: {fileID: 2800000, guid: def8b20b4ba1ab040a094754c5d9114c, type: 3}
  iPhoneHighResSplashScreen: {fileID: 0}
  iPhoneTallHighResSplashScreen: {fileID: 0}
  iPadPortraitSplashScreen: {fileID: 0}
  iPadHighResPortraitSplashScreen: {fileID: 0}
  iPadLandscapeSplashScreen: {fileID: 0}
  iPadHighResLandscapeSplashScreen: {fileID: 0}
  AndroidTargetDevice: 0
  AndroidSplashScreenScale: 2
  AndroidKeystoreName: C:/Users/David/Google Drive/!Anomaly Software/AndroidKeystore/user.keystore
  AndroidKeyaliasName: era03
  resolutionDialogBanner: {fileID: 0}
  m_BuildTargetIcons:
  - m_BuildTarget: 
    m_Icons:
    - m_Icon: {fileID: 2800000, guid: 7c8936f26957f4543b8bd0f8c1c59c83, type: 3}
      m_Size: 128
  - m_BuildTarget: Android
    m_Icons:
    - m_Icon: {fileID: 2800000, guid: 172a7a072adfa2b44a0765c54c801926, type: 3}
      m_Size: 144
    - m_Icon: {fileID: 2800000, guid: d33201ad651f71d4183795b24e484a48, type: 3}
      m_Size: 96
    - m_Icon: {fileID: 2800000, guid: 7ff6e027178fcff4aba542b4273378c0, type: 3}
      m_Size: 72
    - m_Icon: {fileID: 2800000, guid: 7462de3dcd5b9bb47a054fc93f3e6460, type: 3}
      m_Size: 48
    - m_Icon: {fileID: 2800000, guid: c7a532ad899ee7c4c9a5f35973f3b4c4, type: 3}
      m_Size: 36
  m_BuildTargetBatching:
  - m_BuildTarget: Android
    m_StaticBatching: 1
    m_DynamicBatching: 1
  webPlayerTemplate: APPLICATION:Default
  m_TemplateCustomTags: {}
  wiiRegion: 1
  wiiGameCode: RABA
  wiiGameVersion: 
  wiiCompanyCode: ZZ
  wiiSupportsNunchuk: 0
  wiiSupportsClassicController: 0
  wiiSupportsBalanceBoard: 0
  wiiSupportsMotionPlus: 0
  wiiControllerCount: 1
  wiiFloatingPointExceptions: 0
  wiiScreenCrashDumps: 1
  XboxTitleId: 
  XboxImageXexPath: 
  XboxSpaPath: 
  XboxGenerateSpa: 0
  XboxDeployKinectResources: 0
  XboxSplashScreen: {fileID: 0}
  xboxEnableSpeech: 0
  xboxAdditionalTitleMemorySize: 0
  xboxDeployKinectHeadOrientation: 0
  xboxDeployKinectHeadPosition: 0
  ps3TitleConfigPath: 
  ps3DLCConfigPath: 
  ps3ThumbnailPath: 
  ps3BackgroundPath: 
  ps3SoundPath: 
  ps3TrophyCommId: 
  ps3NpCommunicationPassphrase: 
  ps3TrophyPackagePath: 
  ps3BootCheckMaxSaveGameSizeKB: 128
  ps3TrophyCommSig: 
  ps3SaveGameSlots: 1
  ps3TrialMode: 0
  flashStrippingLevel: 2
  spritePackerPolicy: DefaultPackerPolicy
  scriptingDefineSymbols: {}
  metroPackageName: _2D v3
  metroPackageLogo: 
  metroPackageVersion: 
  metroCertificatePath: 
  metroCertificatePassword: 
  metroCertificateSubject: 
  metroCertificateIssuer: 
  metroCertificateNotAfter: 0000000000000000
  metroApplicationDescription: _2D v3
  metroTileLogo: 
  metroTileWideLogo: 
  metroTileSmallLogo: 
  metroTileShortName: 
  metroCommandLineArgsFile: 
  metroTileShowName: 1
  metroTileForegroundText: 1
  metroTileBackgroundColor: {r: 0, g: 0, b: 0, a: 1}
  metroSplashScreenImage: 
  metroSplashScreenBackgroundColor: {r: 0, g: 0, b: 0, a: 1}
  metroSplashScreenUseBackgroundColor: 0
  metroCapabilities: {}
  metroCompilationOverrides: 1
  blackberryDeviceAddress: 
  blackberryDevicePassword: 
  blackberryTokenPath: 
  blackberryTokenExires: 
  blackberryTokenAuthor: 
  blackberryTokenAuthorId: 
  blackberryAuthorId: 
  blackberryCskPassword: 
  blackberrySaveLogPath: 
  blackberryAuthorIdOveride: 0
  blackberrySharedPermissions: 0
  blackberryCameraPermissions: 0
  blackberryGPSPermissions: 0
  blackberryDeviceIDPermissions: 0
  blackberryMicrophonePermissions: 0
  blackberryGamepadSupport: 0
  blackberryBuildId: 0
  blackberryLandscapeSplashScreen: {fileID: 0}
  blackberryPortraitSplashScreen: {fileID: 0}
  blackberrySquareSplashScreen: {fileID: 0}
  tizenProductDescription: 
  tizenProductURL: 
  tizenCertificatePath: 
  tizenCertificatePassword: 
  tizenSaveLogPath: 
  firstStreamedLevelWithResources: 0
  unityRebuildLibraryVersion: 9
  unityForwardCompatibleVersion: 39
  unityStandardAssetsVersion: 0
